module subscriber

go 1.21.1

require (
	github.com/caarlos0/env/v9 v9.0.0
	github.com/ethereum/go-ethereum v1.12.2
	github.com/gofiber/fiber/v2 v2.49.1
	github.com/lib/pq v1.10.9
	github.com/pressly/goose/v3 v3.15.0
)

require (
	github.com/StackExchange/wmi v0.0.0-20180116203802-5d049714c4a6 // indirect
	github.com/deckarep/golang-set/v2 v2.1.0 // indirect
	github.com/go-ole/go-ole v1.2.1 // indirect
	github.com/go-stack/stack v1.8.1 // indirect
	github.com/gorilla/websocket v1.4.2 // indirect
	github.com/holiman/uint256 v1.2.3 // indirect
	github.com/shirou/gopsutil v3.21.4-0.20210419000835-c7a38de76ee5+incompatible // indirect
	github.com/tklauser/go-sysconf v0.3.5 // indirect
	github.com/tklauser/numcpus v0.2.2 // indirect
	golang.org/x/crypto v0.10.0 // indirect
	golang.org/x/exp v0.0.0-20230810033253-352e893a4cad // indirect
	gopkg.in/natefinch/npipe.v2 v2.0.0-20160621034901-c1b8fa8bdcce // indirect
)

require (
	github.com/andybalholm/brotli v1.0.5 // indirect
	github.com/google/uuid v1.3.1
	github.com/klauspost/compress v1.16.7 // indirect
	github.com/mattn/go-colorable v0.1.13 // indirect
	github.com/mattn/go-isatty v0.0.19 // indirect
	github.com/mattn/go-runewidth v0.0.15 // indirect
	github.com/rivo/uniseg v0.2.0 // indirect
	github.com/valyala/bytebufferpool v1.0.0 // indirect
	github.com/valyala/fasthttp v1.49.0 // indirect
	github.com/valyala/tcplisten v1.0.0 // indirect
	golang.org/x/sys v0.11.0 // indirect
)
